{
  "retCode": "000000",
  "retDesc": "操作成功",
  "data": {
    "curPageSize": 10,
    "pageNo": 1,
    "pageSize": 10,
    "totalPage": 2,
    "totalCount": 13,
    "list": [{
      "id": "1127745116304252930",
      "createdDt": null,
      "updatedDt": "2019-07-30 18:08:13",
      "remark": null,
      "username": "gemma",
      "pwd": "cMzZAHM41tgd07YnFiG5z5qX6gA=",
      "truename": "gemma",
      "mobile": null,
      "email": null,
      "idCard": null,
      "wechat": null,
      "openid": null,
      "defualtPwd": null,
      "pwdChangedDt": "2019-05-30T06:10:59.000Z",
      "userStatus": "0"
    }, {
      "id": "1151729977524625410",
      "createdDt": "2019-07-18 13:46:39",
      "updatedDt": "2019-07-18 13:46:39",
      "remark": null,
      "username": "ceshi",
      "pwd": "cMzZAHM41tgd07YnFiG5z5qX6gA=",
      "truename": "测试部",
      "mobile": null,
      "email": null,
      "idCard": null,
      "wechat": null,
      "openid": null,
      "defualtPwd": null,
      "pwdChangedDt": null,
      "userStatus": "0"
    }, {
      "id": "1151729977524625412",
      "createdDt": "2019-07-18 13:46:39",
      "updatedDt": "2019-07-18 13:46:39",
      "remark": null,
      "username": "ceshi2",
      "pwd": "cMzZAHM41tgd07YnFiG5z5qX6gA=",
      "truename": "测试部",
      "mobile": null,
      "email": null,
      "idCard": null,
      "wechat": null,
      "openid": null,
      "defualtPwd": null,
      "pwdChangedDt": null,
      "userStatus": "0"
    }, {
      "id": "1151729977524625413",
      "createdDt": "2019-07-18 13:46:39",
      "updatedDt": "2019-07-18 13:46:39",
      "remark": null,
      "username": "ceshi3",
      "pwd": "cMzZAHM41tgd07YnFiG5z5qX6gA=",
      "truename": "测试部",
      "mobile": null,
      "email": null,
      "idCard": null,
      "wechat": null,
      "openid": null,
      "defualtPwd": null,
      "pwdChangedDt": null,
      "userStatus": "0"
    }, {
      "id": "1151729977524625414",
      "createdDt": "2019-07-18 13:46:39",
      "updatedDt": "2019-07-18 13:46:39",
      "remark": null,
      "username": "ceshi4",
      "pwd": "cMzZAHM41tgd07YnFiG5z5qX6gA=",
      "truename": "测试部",
      "mobile": null,
      "email": null,
      "idCard": null,
      "wechat": null,
      "openid": null,
      "defualtPwd": null,
      "pwdChangedDt": null,
      "userStatus": "0"
    }, {
      "id": "1040413034840051714",
      "createdDt": "2018-09-14 09:32:52",
      "updatedDt": "2019-06-28 18:58:52",
      "remark": null,
      "username": "superadmin",
      "pwd": "cMzZAHM41tgd07YnFiG5z5qX6gA=",
      "truename": "系统管理员1",
      "mobile": null,
      "email": null,
      "idCard": null,
      "wechat": null,
      "openid": null,
      "defualtPwd": null,
      "pwdChangedDt": null,
      "userStatus": "0"
    }, {
      "id": "1143814115685765122",
      "createdDt": "2019-06-26 17:31:51",
      "updatedDt": "2019-06-28 18:58:04",
      "remark": null,
      "username": "bale",
      "pwd": "cMzZAHM41tgd07YnFiG5z5qX6gA=",
      "truename": "bale",
      "mobile": "13265479632",
      "email": "123563@av.com",
      "idCard": null,
      "wechat": null,
      "openid": null,
      "defualtPwd": null,
      "pwdChangedDt": null,
      "userStatus": "0"
    }, {
      "id": "1143429161831362561",
      "createdDt": "2019-06-25 16:02:11",
      "updatedDt": "2019-06-27 10:34:14",
      "remark": null,
      "username": "test1",
      "pwd": "cMzZAHM41tgd07YnFiG5z5qX6gA=",
      "truename": "test1",
      "mobile": null,
      "email": null,
      "idCard": null,
      "wechat": null,
      "openid": null,
      "defualtPwd": null,
      "pwdChangedDt": null,
      "userStatus": "0"
    }, {
      "id": "1143094580699656194",
      "createdDt": "2019-06-24 17:52:40",
      "updatedDt": "2019-06-24 17:52:40",
      "remark": null,
      "username": "hmg",
      "pwd": "cMzZAHM41tgd07YnFiG5z5qX6gA=",
      "truename": "采集管理员",
      "mobile": null,
      "email": null,
      "idCard": null,
      "wechat": null,
      "openid": null,
      "defualtPwd": null,
      "pwdChangedDt": null,
      "userStatus": "0"
    }, {
      "id": "1027740701250162689",
      "createdDt": null,
      "updatedDt": "2019-06-03 16:09:30",
      "remark": null,
      "username": "sysadmin",
      "pwd": "cMzZAHM41tgd07YnFiG5z5qX6gA=",
      "truename": "系统管理员",
      "mobile": "13257869632",
      "email": "36541254@sina.com",
      "idCard": null,
      "wechat": null,
      "openid": null,
      "defualtPwd": null,
      "pwdChangedDt": "2019-05-24T01:57:47.000Z",
      "userStatus": "0"
    }]
  }
}
